<?xml version="1.0" encoding="utf-8"?>
<svg height="176.0dip" width="176.0dip" android:autoMirrored="true" viewBox="0 0 176.0 176.0"
  xmlns:android="http://schemas.android.com/apk/res/android">
    <path fill="#F9F9F9" d="M77.55,6.78C81.33,4.32 83.23,3.1 85.26,2.62C87.06,2.2 88.94,2.2 90.74,2.62C92.77,3.1 94.67,4.32 98.45,6.78L102.86,9.64C104.8,10.9 105.77,11.53 106.82,11.95C107.75,12.33 108.73,12.6 109.72,12.73C110.84,12.89 112,12.83 114.31,12.71L119.56,12.43C124.07,12.2 126.32,12.08 128.32,12.69C130.09,13.22 131.71,14.16 133.06,15.43C134.59,16.86 135.61,18.87 137.66,22.88L140.05,27.57C141.1,29.63 141.63,30.66 142.32,31.55C142.94,32.35 143.65,33.06 144.45,33.68C145.34,34.37 146.37,34.9 148.43,35.95L153.12,38.34C157.13,40.39 159.14,41.41 160.57,42.94C161.84,44.29 162.78,45.91 163.31,47.68C163.92,49.68 163.8,51.93 163.57,56.44L163.29,61.69C163.17,64 163.11,65.16 163.27,66.28C163.4,67.27 163.67,68.25 164.04,69.18C164.47,70.23 165.1,71.2 166.36,73.14L169.22,77.55C171.68,81.33 172.9,83.23 173.38,85.26C173.8,87.06 173.8,88.94 173.38,90.74C172.9,92.77 171.68,94.67 169.22,98.45L166.36,102.86C165.1,104.8 164.47,105.77 164.04,106.82C163.67,107.75 163.4,108.73 163.27,109.72C163.11,110.84 163.17,112 163.29,114.31L163.57,119.56C163.8,124.07 163.92,126.32 163.31,128.32C162.78,130.09 161.84,131.71 160.57,133.06C159.14,134.59 157.13,135.61 153.12,137.66L148.43,140.05C146.37,141.1 145.34,141.63 144.45,142.32C143.65,142.94 142.94,143.65 142.32,144.45C141.63,145.34 141.1,146.37 140.05,148.43L137.66,153.12C135.61,157.13 134.59,159.14 133.06,160.57C131.71,161.84 130.09,162.78 128.32,163.31C126.32,163.92 124.07,163.8 119.56,163.57L114.31,163.29C112,163.17 110.84,163.11 109.72,163.27C108.73,163.4 107.75,163.67 106.82,164.04C105.77,164.47 104.8,165.1 102.86,166.36L98.45,169.22C94.67,171.68 92.77,172.9 90.74,173.38C88.94,173.8 87.06,173.8 85.26,173.38C83.23,172.9 81.33,171.68 77.55,169.22L73.14,166.36C71.2,165.1 70.23,164.47 69.18,164.04C68.25,163.67 67.27,163.4 66.28,163.27C65.16,163.11 64,163.17 61.69,163.29L56.44,163.57C51.93,163.8 49.68,163.92 47.68,163.31C45.91,162.78 44.29,161.84 42.94,160.57C41.41,159.14 40.39,157.13 38.34,153.12L35.95,148.43C34.9,146.37 34.37,145.34 33.68,144.45C33.06,143.65 32.35,142.94 31.55,142.32C30.66,141.63 29.63,141.1 27.57,140.05L22.88,137.66C18.87,135.61 16.86,134.59 15.43,133.06C14.16,131.71 13.22,130.09 12.69,128.32C12.08,126.32 12.2,124.07 12.43,119.56L12.71,114.31C12.83,112 12.89,110.84 12.73,109.72C12.6,108.73 12.33,107.75 11.95,106.82C11.53,105.77 10.9,104.8 9.64,102.86L6.78,98.45C4.32,94.67 3.1,92.77 2.62,90.74C2.2,88.94 2.2,87.06 2.62,85.26C3.1,83.23 4.32,81.33 6.78,77.55L9.64,73.14C10.9,71.2 11.53,70.23 11.95,69.18C12.33,68.25 12.6,67.27 12.73,66.28C12.89,65.16 12.83,64 12.71,61.69L12.43,56.44C12.2,51.93 12.08,49.68 12.69,47.68C13.22,45.91 14.16,44.29 15.43,42.94C16.86,41.41 18.87,40.39 22.88,38.34L27.57,35.95C29.63,34.9 30.66,34.37 31.55,33.68C32.35,33.06 33.06,32.35 33.68,31.55C34.37,30.66 34.9,29.63 35.95,27.57L38.34,22.88C40.39,18.87 41.41,16.86 42.94,15.43C44.29,14.16 45.91,13.22 47.68,12.69C49.68,12.08 51.93,12.2 56.44,12.43L61.69,12.71C64,12.83 65.16,12.89 66.28,12.73C67.27,12.6 68.25,12.33 69.18,11.95C70.23,11.53 71.2,10.9 73.14,9.64L77.55,6.78Z" />
    <path fill="#6dd58c" d="M31,121m6,-0a6,6 0,1 1,-12 -0a6,6 0,1 1,12 -0" stroke-opacity="0.15" fill-opacity="0.15" />
    <path fill="#fcc934" d="M54,145m6,-0a6,6 0,1 1,-12 -0a6,6 0,1 1,12 -0" stroke-opacity="0.15" fill-opacity="0.15" />
    <path fill="#fa903e" d="M88,155m6,-0a6,6 0,1 1,-12 -0a6,6 0,1 1,12 -0" stroke-opacity="0.15" fill-opacity="0.15" />
    <path fill="#af5cf7" d="M144,121m6,-0a6,6 0,1 1,-12 -0a6,6 0,1 1,12 -0" stroke-opacity="0.15" fill-opacity="0.15" />
    <path fill="#ee675c" d="M120,145m8,-0a8,8 0,1 1,-16 -0a8,8 0,1 1,16 -0" />
</svg>