<?xml version="1.0" encoding="utf-8"?>
<svg height="110.0dip" width="176.0dip" viewBox="0 0 176.0 110.0"
  xmlns:android="http://schemas.android.com/apk/res/android">
    <path fill="#296197" d="M176.5,54.44V89.86C176.5,100.91 167.52,109.86 156.44,109.86H20.06C8.98,109.86 0,100.91 0,89.86V52.57C7.79,51.81 15.41,48.77 21.78,43.46L62.06,9.91C76.95,-2.49 98.6,-2.49 113.49,9.91L156.22,45.51C162.18,50.47 169.23,53.45 176.49,54.44H176.5Z" fill-rule="evenodd" />
</svg>